607Assignment3B Dylan Gold
…
# A tibble: 6 × 3
  Date       NYC_Load_MW Capital_Load_MW
  <date>           <dbl>           <dbl>
1 2025-06-18     145166.          32286.
2 2025-06-19     164145.          37476.
3 2025-06-20     155307.          31819.
4 2025-06-21     154500.          31061.
5 2025-06-22     166034.          36609.
6 2025-06-23     151965.          29771.

df_daily

# A tibble: 1,204 × 3
   Date       NYC_Load_MW Capital_Load_MW
   <date>           <dbl>           <dbl>
 1 2022-01-01     111514.          29764.
 2 2022-01-02     112472.          31662.
 3 2022-01-03     134730.          36325.
 4 2022-01-04     139265.          36847.
 5 2022-01-05     134372.          35364.
 6 2022-01-06     132235.          34393.
 7 2022-01-07     137456.          35448.
 8 2022-01-08     133163.          35288.
 9 2022-01-09     117183.          32005.
10 2022-01-10     138840.          35872.
# ℹ 1,194 more rows
…
